\relax 
\providecommand\hyper@newdestlabel[2]{}
\providecommand*{\memsetcounter}[2]{}
\providecommand\HyperFirstAtBeginDocument{\AtBeginDocument}
\HyperFirstAtBeginDocument{\ifx\hyper@anchor\@undefined
\global\let\oldcontentsline\contentsline
\gdef\contentsline#1#2#3#4{\oldcontentsline{#1}{#2}{#3}}
\global\let\oldnewlabel\newlabel
\gdef\newlabel#1#2{\newlabelxx{#1}#2}
\gdef\newlabelxx#1#2#3#4#5#6{\oldnewlabel{#1}{{#2}{#3}}}
\AtEndDocument{\ifx\hyper@anchor\@undefined
\let\contentsline\oldcontentsline
\let\newlabel\oldnewlabel
\fi}
\fi}
\global\let\hyper@last\relax 
\gdef\HyperFirstAtBeginDocument#1{#1}
\providecommand\HyField@AuxAddToFields[1]{}
\providecommand\HyField@AuxAddToCoFields[2]{}
\providecommand\BKM@entry[2]{}
\providecommand\babel@aux[2]{}
\@nameuse{bbl@beforestart}
\catcode `:\active 
\catcode `;\active 
\catcode `!\active 
\catcode `?\active 
\catcode `"\active 
\catcode `<\active 
\catcode `>\active 
\@nameuse{es@quoting}
\citation{abnt-url-package=url}
\@writefile{toc}{\changetocdepth  {4}}
\providecommand \oddpage@label [2]{}
\babel@aux{brazil}{}
\BKM@entry{id=1,dest={6368617074657262312E30},srcline={172}}{5C3337365C3337375C303030465C3030306F5C3030306C5C303030685C303030615C3030305C3034305C303030645C303030655C3030305C3034305C303030725C3030306F5C303030735C303030745C3030306F}
\BKM@entry{id=2,dest={746F632E30},srcline={222}}{5C3337365C3337375C303030535C303030755C3030306D5C3030305C3334315C303030725C303030695C3030306F}
\@writefile{toc}{\setlength  {\cftchapterindent }{\cftlastnumwidth } \setlength  {\cftchapternumwidth }{2em}}
\BKM@entry{id=3,dest={636861707465722E31},srcline={236}}{5C3337365C3337375C303030495C3030306E5C303030745C303030725C3030306F5C303030645C303030755C3030305C3334375C3030305C3334335C3030306F}
\citation{Oh2021}
\citation{Tyrovolas2021}
\citation{Szocska2021}
\@writefile{toc}{\setlength  {\cftchapterindent }{0em} \setlength  {\cftchapternumwidth }{\cftlastnumwidth }}
\@writefile{toc}{\contentsline {chapter}{\chapternumberline {1}Introdução}{3}{chapter.1}\protected@file@percent }
\@writefile{brf}{\backcite{Oh2021,Tyrovolas2021,Szocska2021}{{3}{1}{chapter.1}}}
\@writefile{brf}{\backcite{Oh2021,Tyrovolas2021,Szocska2021}{{3}{1}{chapter.1}}}
\@writefile{brf}{\backcite{Oh2021,Tyrovolas2021,Szocska2021}{{3}{1}{chapter.1}}}
\@writefile{lof}{\contentsline {figure}{\numberline {1}{\ignorespaces Diagnósticos de COVID-19 na Bahia por mil habitantes}}{3}{figure.1.1}\protected@file@percent }
\newlabel{fig:cov_bahia}{{\M@TitleReference {1}{Diagnósticos de COVID-19 na Bahia por mil habitantes}}{3}{Diagnósticos de COVID-19 na Bahia por mil habitantes}{figure.1.1}{}}
\BKM@entry{id=4,dest={73656374696F6E2E312E31},srcline={252}}{5C3337365C3337375C303030515C303030755C303030655C303030735C303030745C3030305C3336355C303030655C303030735C3030305C3034305C303030655C3030305C3034305C303030485C303030695C303030705C3030305C3336335C303030745C303030655C303030735C303030655C30303073}
\BKM@entry{id=5,dest={73656374696F6E2E312E32},srcline={258}}{5C3337365C3337375C3030304F5C303030625C3030306A5C303030655C303030745C303030695C303030765C3030306F5C30303073}
\BKM@entry{id=6,dest={73656374696F6E2E312E33},srcline={281}}{5C3337365C3337375C3030304A5C303030755C303030735C303030745C303030695C303030665C303030695C303030635C303030615C303030745C303030695C303030765C30303061}
\citation{Bermudez-Edo2018}
\@writefile{toc}{\contentsline {section}{\numberline {1.1}Questões e Hipóteses}{4}{section.1.1}\protected@file@percent }
\@writefile{toc}{\contentsline {section}{\numberline {1.2}Objetivos}{4}{section.1.2}\protected@file@percent }
\@writefile{toc}{\contentsline {section}{\numberline {1.3}Justificativa}{4}{section.1.3}\protected@file@percent }
\@writefile{brf}{\backcite{Bermudez-Edo2018}{{4}{1.3}{section.1.3}}}
\citation{Tejaswin2015}
\citation{Chaturvedi2020}
\citation{Milusheva2021}
\@writefile{lof}{\contentsline {figure}{\numberline {2}{\ignorespaces Dados de Mobilidade do Google}}{5}{figure.1.2}\protected@file@percent }
\newlabel{fig:data_google}{{\M@TitleReference {2}{Dados de Mobilidade do Google}}{5}{Dados de Mobilidade do Google}{figure.1.2}{}}
\@writefile{brf}{\backcite{Tejaswin2015,Chaturvedi2020,Milusheva2021}{{5}{1.3}{section.1.3}}}
\@writefile{brf}{\backcite{Tejaswin2015,Chaturvedi2020,Milusheva2021}{{5}{1.3}{section.1.3}}}
\@writefile{brf}{\backcite{Tejaswin2015,Chaturvedi2020,Milusheva2021}{{5}{1.3}{section.1.3}}}
\BKM@entry{id=7,dest={636861707465722E32},srcline={295}}{5C3337365C3337375C3030304D5C303030655C303030745C3030306F5C303030645C3030306F5C3030306C5C3030306F5C303030675C303030695C30303061}
\BKM@entry{id=8,dest={73656374696F6E2E322E31},srcline={302}}{5C3337365C3337375C303030465C3030306F5C3030306E5C303030745C303030655C303030735C3030305C3034305C303030645C303030655C3030305C3034305C303030645C303030615C303030645C3030306F5C30303073}
\@writefile{toc}{\setlength  {\cftchapterindent }{0em} \setlength  {\cftchapternumwidth }{\cftlastnumwidth }}
\@writefile{toc}{\contentsline {chapter}{\chapternumberline {2}Metodologia}{6}{chapter.2}\protected@file@percent }
\@writefile{toc}{\contentsline {section}{\numberline {2.1}Fontes de dados}{6}{section.2.1}\protected@file@percent }
\@writefile{lot}{\contentsline {table}{\numberline {1}{\ignorespaces Fontes dos dados}}{6}{table.2.1}\protected@file@percent }
\newlabel{table:01}{{\M@TitleReference {1}{Fontes dos dados}}{6}{Fontes dos dados}{table.2.1}{}}
\citation{IBGE_dtb_2020}
\citation{Cart_Salvador_2021}
\citation{IBGE_regic_2018}
\BKM@entry{id=9,dest={73656374696F6E2E322E32},srcline={315}}{5C3337365C3337375C303030505C303030725C3030306F5C303030635C303030655C303030735C303030735C3030306F5C3030305C3034305C303030645C303030655C3030305C3034305C303030745C303030725C303030615C303030625C303030615C3030306C5C303030685C3030306F}
\@writefile{brf}{\backcite{IBGE_dtb_2020}{{7}{2.1}{table.2.1}}}
\@writefile{brf}{\backcite{Cart_Salvador_2021}{{7}{2.1}{table.2.1}}}
\@writefile{brf}{\backcite{IBGE_regic_2018}{{7}{2.1}{table.2.1}}}
\@writefile{toc}{\contentsline {section}{\numberline {2.2}Processo de trabalho}{7}{section.2.2}\protected@file@percent }
\@writefile{lof}{\contentsline {figure}{\numberline {3}{\ignorespaces Fluxograma do processo de trabalho}}{7}{figure.2.3}\protected@file@percent }
\newlabel{fig:fluxograma}{{\M@TitleReference {3}{Fluxograma do processo de trabalho}}{7}{Fluxograma do processo de trabalho}{figure.2.3}{}}
\citation{Ribeiro2018}
\citation{ActiveConclusion2020}
\citation{DigitalGeographyLab2019}
\BKM@entry{id=10,dest={73656374696F6E2E322E33},srcline={348}}{5C3337365C3337375C303030455C303030735C303030745C303030725C303030615C303030745C3030305C3335315C303030675C303030695C303030615C303030735C3030305C3034305C303030645C303030655C3030305C3034305C303030765C303030695C303030735C303030755C303030615C3030306C5C303030695C3030307A5C303030615C3030305C3334375C3030305C3334335C3030306F5C3030305C3034305C303030645C303030655C3030305C3034305C303030645C303030615C303030645C3030306F5C30303073}
\@writefile{brf}{\backcite{Ribeiro2018}{{8}{2.2}{Item.7}}}
\@writefile{brf}{\backcite{ActiveConclusion2020}{{8}{2.2}{Item.7}}}
\@writefile{brf}{\backcite{DigitalGeographyLab2019}{{8}{2.2}{Item.7}}}
\@writefile{toc}{\contentsline {section}{\numberline {2.3}Estratégias de visualização de dados}{8}{section.2.3}\protected@file@percent }
\BKM@entry{id=11,dest={636861707465722E33},srcline={362}}{5C3337365C3337375C303030525C303030655C303030735C303030755C3030306C5C303030745C303030615C303030645C3030306F5C303030735C3030305C3034305C303030655C303030735C303030705C303030655C303030725C303030615C303030645C3030306F5C30303073}
\@writefile{toc}{\setlength  {\cftchapterindent }{0em} \setlength  {\cftchapternumwidth }{\cftlastnumwidth }}
\@writefile{toc}{\contentsline {chapter}{\chapternumberline {3}Resultados esperados}{10}{chapter.3}\protected@file@percent }
\BKM@entry{id=12,dest={636861707465722E34},srcline={373}}{5C3337365C3337375C303030435C3030306F5C3030306E5C303030735C303030695C303030645C303030655C303030725C303030615C3030305C3334375C3030305C3336355C303030655C303030735C3030305C3034305C303030665C303030695C3030306E5C303030615C303030695C30303073}
\bibdata{abntex2-options,../bib/abntex2-modelo-references}
\@writefile{toc}{\setlength  {\cftchapterindent }{0em} \setlength  {\cftchapternumwidth }{\cftlastnumwidth }}
\@writefile{toc}{\contentsline {chapter}{\chapternumberline {4}Considerações finais}{11}{chapter.4}\protected@file@percent }
\@writefile{toc}{\vspace  {\cftbeforepartskip }}
\BKM@entry{id=13,dest={636861707465722A2E34},srcline={3}}{5C3337365C3337375C303030525C303030655C303030665C303030655C303030725C3030305C3335325C3030306E5C303030635C303030695C303030615C30303073}
\bibcite{ActiveConclusion2020}{ActiveConclusion 2020}
\bibciteEXPL{ActiveConclusion2020}{ActiveConclusion}
\bibciteIMPL{ActiveConclusion2020}{ACTIVECONCLUSION}
\bibciteYEAR{ActiveConclusion2020}{2020}
\bibcite{Bermudez-Edo2018}{Bermudez-Edo, Barnaghi e Moessner 2018}
\bibciteEXPL{Bermudez-Edo2018}{Bermudez-Edo, Barnaghi e Moessner}
\bibciteIMPL{Bermudez-Edo2018}{BERMUDEZ-EDO; BARNAGHI; MOESSNER}
\bibciteYEAR{Bermudez-Edo2018}{2018}
\bibcite{Chaturvedi2020}{Chaturvedi, Toshniwal e Parida 2020}
\bibciteEXPL{Chaturvedi2020}{Chaturvedi, Toshniwal e Parida}
\bibciteIMPL{Chaturvedi2020}{CHATURVEDI; TOSHNIWAL; PARIDA}
\bibciteYEAR{Chaturvedi2020}{2020}
\bibcite{DigitalGeographyLab2019}{DigitalGeographyLab 2019}
\bibciteEXPL{DigitalGeographyLab2019}{DigitalGeographyLab}
\bibciteIMPL{DigitalGeographyLab2019}{DIGITALGEOGRAPHYLAB}
\bibciteYEAR{DigitalGeographyLab2019}{2019}
\bibcite{IBGE_regic_2018}{IBGE 2018}
\bibciteEXPL{IBGE_regic_2018}{IBGE}
\bibciteIMPL{IBGE_regic_2018}{IBGE}
\bibciteYEAR{IBGE_regic_2018}{2018}
\bibcite{IBGE_dtb_2020}{IBGE 2020}
\bibciteEXPL{IBGE_dtb_2020}{IBGE}
\bibciteIMPL{IBGE_dtb_2020}{IBGE}
\bibciteYEAR{IBGE_dtb_2020}{2020}
\bibcite{Milusheva2021}{Milusheva et al. 2021}
\bibciteEXPL{Milusheva2021}{Milusheva et al.}
\bibciteIMPL{Milusheva2021}{MILUSHEVA et al.}
\bibciteYEAR{Milusheva2021}{2021}
\bibcite{Oh2021}{Oh et al. 2021}
\bibciteEXPL{Oh2021}{Oh et al.}
\bibciteIMPL{Oh2021}{OH et al.}
\bibciteYEAR{Oh2021}{2021}
\bibcite{Ribeiro2018}{Ribeiro 2018}
\bibciteEXPL{Ribeiro2018}{Ribeiro}
\bibciteIMPL{Ribeiro2018}{RIBEIRO}
\bibciteYEAR{Ribeiro2018}{2018}
\bibcite{Cart_Salvador_2021}{{SEFAZ - Prefeitura Municipal de Salvador} 2021}
\bibciteEXPL{Cart_Salvador_2021}{{SEFAZ - Prefeitura Municipal de Salvador}}
\bibciteIMPL{Cart_Salvador_2021}{{SEFAZ - Prefeitura Municipal de Salvador}}
\bibciteYEAR{Cart_Salvador_2021}{2021}
\bibcite{Szocska2021}{Szocska et al. 2021}
\bibciteEXPL{Szocska2021}{Szocska et al.}
\bibciteIMPL{Szocska2021}{SZOCSKA et al.}
\bibciteYEAR{Szocska2021}{2021}
\bibcite{Tejaswin2015}{Tejaswin, Kumar e Gupta 2015}
\bibciteEXPL{Tejaswin2015}{Tejaswin, Kumar e Gupta}
\bibciteIMPL{Tejaswin2015}{TEJASWIN; KUMAR; GUPTA}
\bibciteYEAR{Tejaswin2015}{2015}
\@writefile{toc}{\setlength  {\cftchapterindent }{\cftlastnumwidth } \setlength  {\cftchapternumwidth }{2em}}
\@writefile{toc}{\contentsline {chapter}{Refer\^encias}{12}{chapter*.4}\protected@file@percent }
\bibcite{Tyrovolas2021}{Tyrovolas et al. 2021}
\bibciteEXPL{Tyrovolas2021}{Tyrovolas et al.}
\bibciteIMPL{Tyrovolas2021}{TYROVOLAS et al.}
\bibciteYEAR{Tyrovolas2021}{2021}
\bibstyle{abntex2-alf}
\memsetcounter{lastsheet}{14}
\memsetcounter{lastpage}{13}
\gdef \@abspage@last{14}
