PWD d:/gitrepos/ppgm_sig_01/projeto/proj
INPUT d:/Apps/texlive/2021/texmf.cnf
INPUT d:/Apps/texlive/2021/texmf-dist/web2c/texmf.cnf
INPUT d:/Apps/texlive/2021/texmf-var/web2c/pdftex/pdflatex.fmt
INPUT d:/gitrepos/ppgm_sig_01/projeto/proj/main.tex
