\relax 
\providecommand\hyper@newdestlabel[2]{}
\providecommand\HyperFirstAtBeginDocument{\AtBeginDocument}
\HyperFirstAtBeginDocument{\ifx\hyper@anchor\@undefined
\global\let\oldcontentsline\contentsline
\gdef\contentsline#1#2#3#4{\oldcontentsline{#1}{#2}{#3}}
\global\let\oldnewlabel\newlabel
\gdef\newlabel#1#2{\newlabelxx{#1}#2}
\gdef\newlabelxx#1#2#3#4#5#6{\oldnewlabel{#1}{{#2}{#3}}}
\AtEndDocument{\ifx\hyper@anchor\@undefined
\let\contentsline\oldcontentsline
\let\newlabel\oldnewlabel
\fi}
\fi}
\global\let\hyper@last\relax 
\gdef\HyperFirstAtBeginDocument#1{#1}
\providecommand\HyField@AuxAddToFields[1]{}
\providecommand\HyField@AuxAddToCoFields[2]{}
\citation{abnt-url-package=url}
\providecommand \oddpage@label [2]{}
\@writefile{nav}{\headcommand {\slideentry {0}{0}{1}{1/1}{}{0}}}
\@writefile{nav}{\headcommand {\beamer@framepages {1}{1}}}
\@writefile{nav}{\headcommand {\slideentry {0}{0}{2}{2/2}{}{0}}}
\@writefile{nav}{\headcommand {\beamer@framepages {2}{2}}}
\@writefile{toc}{\beamer@sectionintoc {1}{Introdução}{3}{0}{1}}
\@writefile{nav}{\headcommand {\beamer@sectionpages {1}{2}}}
\@writefile{nav}{\headcommand {\beamer@subsectionpages {1}{2}}}
\@writefile{nav}{\headcommand {\sectionentry {1}{Introdução}{3}{Introdução}{0}}}
\@writefile{nav}{\headcommand {\slideentry {1}{0}{1}{3/3}{}{0}}}
\@writefile{nav}{\headcommand {\beamer@framepages {3}{3}}}
\citation{Bermudez-Edo2018}
\citation{Oh2021}
\citation{Tyrovolas2021}
\citation{Szocska2021}
\citation{Tejaswin2015}
\citation{Chaturvedi2020}
\citation{Milusheva2021}
\@writefile{brf}{\backcite{Bermudez-Edo2018}{{4}{2}{}}}
\@writefile{brf}{\backcite{Oh2021,Tyrovolas2021,Szocska2021}{{4}{2}{}}}
\@writefile{brf}{\backcite{Oh2021,Tyrovolas2021,Szocska2021}{{4}{2}{}}}
\@writefile{brf}{\backcite{Oh2021,Tyrovolas2021,Szocska2021}{{4}{2}{}}}
\@writefile{brf}{\backcite{Tejaswin2015,Chaturvedi2020,Milusheva2021}{{4}{2}{}}}
\@writefile{brf}{\backcite{Tejaswin2015,Chaturvedi2020,Milusheva2021}{{4}{2}{}}}
\@writefile{brf}{\backcite{Tejaswin2015,Chaturvedi2020,Milusheva2021}{{4}{2}{}}}
\@writefile{nav}{\headcommand {\slideentry {1}{0}{2}{4/4}{}{0}}}
\@writefile{nav}{\headcommand {\beamer@framepages {4}{4}}}
\newlabel{fig:cov_bahia}{{1}{5}{Introdução}{}{}}
\@writefile{snm}{\beamer@slide {fig:cov_bahia}{5}}
\@writefile{nav}{\headcommand {\slideentry {1}{0}{3}{5/5}{}{0}}}
\@writefile{nav}{\headcommand {\beamer@framepages {5}{5}}}
\@writefile{nav}{\headcommand {\slideentry {1}{0}{4}{6/6}{}{0}}}
\@writefile{nav}{\headcommand {\beamer@framepages {6}{6}}}
\@writefile{nav}{\headcommand {\slideentry {1}{0}{5}{7/7}{}{0}}}
\@writefile{nav}{\headcommand {\beamer@framepages {7}{7}}}
\@writefile{toc}{\beamer@sectionintoc {2}{Metodologia}{8}{0}{2}}
\@writefile{nav}{\headcommand {\beamer@sectionpages {3}{7}}}
\@writefile{nav}{\headcommand {\beamer@subsectionpages {3}{7}}}
\@writefile{nav}{\headcommand {\sectionentry {2}{Metodologia}{8}{Metodologia}{0}}}
\@writefile{nav}{\headcommand {\slideentry {2}{0}{1}{8/8}{}{0}}}
\@writefile{nav}{\headcommand {\beamer@framepages {8}{8}}}
\@writefile{nav}{\headcommand {\slideentry {2}{0}{2}{9/9}{}{0}}}
\@writefile{nav}{\headcommand {\beamer@framepages {9}{9}}}
\newlabel{tabel:tab01}{{1}{10}{Metodologia}{}{}}
\@writefile{snm}{\beamer@slide {tabel:tab01}{10}}
\@writefile{nav}{\headcommand {\slideentry {2}{0}{3}{10/10}{}{0}}}
\@writefile{nav}{\headcommand {\beamer@framepages {10}{10}}}
\newlabel{fig:data_google}{{2}{11}{Metodologia}{}{}}
\@writefile{snm}{\beamer@slide {fig:data_google}{11}}
\@writefile{nav}{\headcommand {\slideentry {2}{0}{4}{11/11}{}{0}}}
\@writefile{nav}{\headcommand {\beamer@framepages {11}{11}}}
\@writefile{toc}{\beamer@sectionintoc {3}{Resultados Esperados}{12}{0}{3}}
\@writefile{nav}{\headcommand {\beamer@sectionpages {8}{11}}}
\@writefile{nav}{\headcommand {\beamer@subsectionpages {8}{11}}}
\@writefile{nav}{\headcommand {\sectionentry {3}{Resultados Esperados}{12}{Resultados Esperados}{0}}}
\@writefile{nav}{\headcommand {\slideentry {3}{0}{1}{12/12}{}{0}}}
\@writefile{nav}{\headcommand {\beamer@framepages {12}{12}}}
\@writefile{nav}{\headcommand {\slideentry {3}{0}{2}{13/13}{}{0}}}
\@writefile{nav}{\headcommand {\beamer@framepages {13}{13}}}
\@writefile{toc}{\beamer@sectionintoc {4}{Considerações Finais}{14}{0}{4}}
\@writefile{nav}{\headcommand {\beamer@sectionpages {12}{13}}}
\@writefile{nav}{\headcommand {\beamer@subsectionpages {12}{13}}}
\@writefile{nav}{\headcommand {\sectionentry {4}{Considerações Finais}{14}{Considerações Finais}{0}}}
\@writefile{nav}{\headcommand {\slideentry {4}{0}{1}{14/14}{}{0}}}
\@writefile{nav}{\headcommand {\beamer@framepages {14}{14}}}
\@writefile{nav}{\headcommand {\slideentry {4}{0}{2}{15/15}{}{0}}}
\@writefile{nav}{\headcommand {\beamer@framepages {15}{15}}}
\@writefile{nav}{\headcommand {\slideentry {4}{0}{3}{16/16}{}{0}}}
\@writefile{nav}{\headcommand {\beamer@framepages {16}{16}}}
\@writefile{toc}{\beamer@sectionintoc {5}{Referências}{17}{0}{5}}
\@writefile{nav}{\headcommand {\beamer@sectionpages {14}{16}}}
\@writefile{nav}{\headcommand {\beamer@subsectionpages {14}{16}}}
\@writefile{nav}{\headcommand {\sectionentry {5}{Referências}{17}{Referências}{0}}}
\@writefile{nav}{\headcommand {\slideentry {5}{0}{1}{17/17}{}{0}}}
\@writefile{nav}{\headcommand {\beamer@framepages {17}{17}}}
\bibdata{abntex2-options,../bib/abntex2-modelo-references.bib}
\bibcite{Bermudez-Edo2018}{Bermudez-Edo, Barnaghi e Moessner 2018}
\bibciteEXPL{Bermudez-Edo2018}{Bermudez-Edo, Barnaghi e Moessner}
\bibciteIMPL{Bermudez-Edo2018}{BERMUDEZ-EDO; BARNAGHI; MOESSNER}
\bibciteYEAR{Bermudez-Edo2018}{2018}
\bibcite{Chaturvedi2020}{Chaturvedi, Toshniwal e Parida 2020}
\bibciteEXPL{Chaturvedi2020}{Chaturvedi, Toshniwal e Parida}
\bibciteIMPL{Chaturvedi2020}{CHATURVEDI; TOSHNIWAL; PARIDA}
\bibciteYEAR{Chaturvedi2020}{2020}
\bibcite{Milusheva2021}{Milusheva et al. 2021}
\bibciteEXPL{Milusheva2021}{Milusheva et al.}
\bibciteIMPL{Milusheva2021}{MILUSHEVA et al.}
\bibciteYEAR{Milusheva2021}{2021}
\bibcite{Oh2021}{Oh et al. 2021}
\bibciteEXPL{Oh2021}{Oh et al.}
\bibciteIMPL{Oh2021}{OH et al.}
\bibciteYEAR{Oh2021}{2021}
\bibcite{Szocska2021}{Szocska et al. 2021}
\bibciteEXPL{Szocska2021}{Szocska et al.}
\bibciteIMPL{Szocska2021}{SZOCSKA et al.}
\bibciteYEAR{Szocska2021}{2021}
\bibcite{Tejaswin2015}{Tejaswin, Kumar e Gupta 2015}
\bibciteEXPL{Tejaswin2015}{Tejaswin, Kumar e Gupta}
\bibciteIMPL{Tejaswin2015}{TEJASWIN; KUMAR; GUPTA}
\bibciteYEAR{Tejaswin2015}{2015}
\bibcite{Tyrovolas2021}{Tyrovolas et al. 2021}
\bibciteEXPL{Tyrovolas2021}{Tyrovolas et al.}
\bibciteIMPL{Tyrovolas2021}{TYROVOLAS et al.}
\bibciteYEAR{Tyrovolas2021}{2021}
\@writefile{nav}{\headcommand {\slideentry {5}{0}{2}{18/18}{}{0}}}
\@writefile{nav}{\headcommand {\beamer@framepages {18}{18}}}
\@writefile{nav}{\headcommand {\slideentry {5}{0}{2}{18/19}{}{0}}}
\@writefile{nav}{\headcommand {\beamer@framepages {18}{19}}}
\@writefile{nav}{\headcommand {\beamer@partpages {1}{19}}}
\@writefile{nav}{\headcommand {\beamer@subsectionpages {17}{19}}}
\@writefile{nav}{\headcommand {\beamer@sectionpages {17}{19}}}
\@writefile{nav}{\headcommand {\beamer@documentpages {19}}}
\@writefile{nav}{\headcommand {\gdef \inserttotalframenumber {13}}}
\bibstyle{abntex2-alf}
\gdef \@abspage@last{19}
