\beamer@sectionintoc {1}{Introdução}{3}{0}{1}
\beamer@sectionintoc {2}{Metodologia}{8}{0}{2}
\beamer@sectionintoc {3}{Resultados Esperados}{12}{0}{3}
\beamer@sectionintoc {4}{Considerações Finais}{14}{0}{4}
\beamer@sectionintoc {5}{Referências}{17}{0}{5}
