<PAMDataset>
  <PAMRasterBand band="1">
    <Metadata>
      <MDI key="STATISTICS_MAXIMUM">599</MDI>
      <MDI key="STATISTICS_MEAN">119.42502399079</MDI>
      <MDI key="STATISTICS_MINIMUM">0</MDI>
      <MDI key="STATISTICS_STDDEV">118.16188749532</MDI>
      <MDI key="STATISTICS_VALID_PERCENT">73.45</MDI>
    </Metadata>
  </PAMRasterBand>
</PAMDataset>
