\changetocdepth {4}
\babel@toc {brazil}{}\relax 
\babel@toc {brazil}{}\relax 
\setlength {\cftchapterindent }{\cftlastnumwidth } \setlength {\cftchapternumwidth }{2em}
\setlength {\cftchapterindent }{\cftlastnumwidth } \setlength {\cftchapternumwidth }{2em}
\setlength {\cftchapterindent }{\cftlastnumwidth } \setlength {\cftchapternumwidth }{2em}
\setlength {\cftchapterindent }{\cftlastnumwidth } \setlength {\cftchapternumwidth }{2em}
\setlength {\cftchapterindent }{\cftlastnumwidth } \setlength {\cftchapternumwidth }{2em}
\setlength {\cftchapterindent }{\cftlastnumwidth } \setlength {\cftchapternumwidth }{2em}
\setlength {\cftchapterindent }{\cftlastnumwidth } \setlength {\cftchapternumwidth }{2em}
\setlength {\cftchapterindent }{\cftlastnumwidth } \setlength {\cftchapternumwidth }{2em}
\setlength {\cftchapterindent }{0em} \setlength {\cftchapternumwidth }{\cftlastnumwidth }
\contentsline {chapter}{\chapternumberline {1}Introdução}{33}{chapter.1}%
\contentsline {part}{\partnumberline {I}Preparação da pesquisa}{35}{part.1}%
\setlength {\cftchapterindent }{0em} \setlength {\cftchapternumwidth }{\cftlastnumwidth }
\contentsline {chapter}{\chapternumberline {2}Conteúdos específicos do modelo de trabalho acadêmico}{37}{chapter.2}%
\contentsline {section}{\numberline {2.1}Quadros}{37}{section.2.1}%
\contentsline {part}{\partnumberline {II}Referenciais teóricos}{39}{part.2}%
\setlength {\cftchapterindent }{0em} \setlength {\cftchapternumwidth }{\cftlastnumwidth }
\contentsline {chapter}{\chapternumberline {3}Lorem ipsum dolor sit amet}{41}{chapter.3}%
\contentsline {section}{\numberline {3.1}Aliquam vestibulum fringilla lorem}{41}{section.3.1}%
\contentsline {part}{\partnumberline {III}Resultados}{43}{part.3}%
\setlength {\cftchapterindent }{0em} \setlength {\cftchapternumwidth }{\cftlastnumwidth }
\contentsline {chapter}{\chapternumberline {4}Lectus lobortis condimentum}{45}{chapter.4}%
\contentsline {section}{\numberline {4.1}Vestibulum ante ipsum primis in faucibus orci luctus et ultrices posuere cubilia Curae}{45}{section.4.1}%
\setlength {\cftchapterindent }{0em} \setlength {\cftchapternumwidth }{\cftlastnumwidth }
\contentsline {chapter}{\chapternumberline {5}Nam sed tellus sit amet lectus urna ullamcorper tristique interdum elementum}{47}{chapter.5}%
\contentsline {section}{\numberline {5.1}Pellentesque sit amet pede ac sem eleifend consectetuer}{47}{section.5.1}%
\vspace {\cftbeforepartskip }
\setlength {\cftchapterindent }{0em} \setlength {\cftchapternumwidth }{\cftlastnumwidth }
\contentsline {chapter}{\chapternumberline {6}Conclusão}{49}{chapter.6}%
\vspace {\cftbeforepartskip }
\renewcommand *{\cftappendixname }{AP\^ENDICE \space }
\setlength {\cftpartindent }{\cftlastnumwidth } \setlength {\cftpartnumwidth }{2em}
\cftinsert {A}
\contentsline {part}{Ap\^endices}{51}{section*.26}%
\setlength {\cftchapterindent }{0em} \setlength {\cftchapternumwidth }{\cftlastnumwidth }
\setlength {\cftchapterindent }{\cftlastnumwidth } \setlength {\cftchapternumwidth }{2em}
\cftinsert {A}
\contentsline {appendix}{\chapternumberline {A}Quisque libero justo}{53}{appendix.A}%
\setlength {\cftchapterindent }{0em} \setlength {\cftchapternumwidth }{\cftlastnumwidth }
\setlength {\cftchapterindent }{\cftlastnumwidth } \setlength {\cftchapternumwidth }{2em}
\cftinsert {A}
\contentsline {appendix}{\chapternumberline {B}Nullam elementum urna vel imperdiet sodales elit ipsum pharetra ligula ac pretium ante justo a nulla curabitur tristique arcu eu metus}{55}{appendix.B}%
\cftinsert {AAA}
\renewcommand *{\cftappendixname }{ANEXO \space }
\setlength {\cftpartindent }{\cftlastnumwidth } \setlength {\cftpartnumwidth }{2em}
\cftinsert {A}
\contentsline {part}{Anexos}{57}{section*.27}%
\setlength {\cftchapterindent }{0em} \setlength {\cftchapternumwidth }{\cftlastnumwidth }
\setlength {\cftchapterindent }{\cftlastnumwidth } \setlength {\cftchapternumwidth }{2em}
\cftinsert {A}
\contentsline {appendix}{\chapternumberline {A}Morbi ultrices rutrum lorem.}{59}{appendix.anexochapback.1}%
\setlength {\cftchapterindent }{0em} \setlength {\cftchapternumwidth }{\cftlastnumwidth }
\setlength {\cftchapterindent }{\cftlastnumwidth } \setlength {\cftchapternumwidth }{2em}
\cftinsert {A}
\contentsline {appendix}{\chapternumberline {B}Cras non urna sed feugiat cum sociis natoque penatibus et magnis dis parturient montes nascetur ridiculus mus}{61}{appendix.anexochapback.2}%
\setlength {\cftchapterindent }{0em} \setlength {\cftchapternumwidth }{\cftlastnumwidth }
\setlength {\cftchapterindent }{\cftlastnumwidth } \setlength {\cftchapternumwidth }{2em}
\cftinsert {A}
\contentsline {appendix}{\chapternumberline {C}Fusce facilisis lacinia dui}{63}{appendix.anexochapback.3}%
\vspace {\cftbeforepartskip }
